{
  "Profiles": [
    {
      "Name": "dlt-servers",
      "Guid": "dlt-servers",
      "Dynamic Profile Parent Name": "Default",
      "Tags": ["deltares"],
      "Log Directory": "/Users/marvink/OneDrive - Stichting Deltares/var/logging/iterm/servers",
      "Custom Command": "Yes",
      "Command": "zsh --login -c \"ssh \\(profileName)\"",
      "Set Local Environment Vars" : false
    },
    {
      "Name": "dlt-servers-tmux",
      "Guid": "dlt-servers-tmux",
      "Dynamic Profile Parent Name": "Default",
      "Tags": ["deltares"],
      "Log Directory": "/Users/marvink/OneDrive - Stichting Deltares/var/logging/iterm/servers",
      "Set Local Environment Vars" : false,
      "Custom Command": "Yes",
      "Command": "ssh -t \\(profileName) 'tmux -CC new-session -A -s main'"
    },
    {
      "Name": "dlt-servers-tmux-keeper",
      "Guid": "dlt-servers-tmux-keeper",
      "Dynamic Profile Parent Name": "Default",
      "Tags": ["deltares"],
      "Log Directory": "/Users/marvink/OneDrive - Stichting Deltares/var/logging/iterm/servers",
      "Set Local Environment Vars" : false,
      "Custom Command": "Yes",
      "Command": "zsh --login -c \"ssh -t \\(profileName) 'tmux -CC new-session -A -s main'\""
    },
    {"Name": "v-netjump003","Guid": "v-netjump003","Dynamic Profile Parent Name": "dlt-servers-tmux"},
    {"Name": "p-nms001","Guid": "p-nms001","Dynamic Profile Parent Name": "dlt-servers"},
    {"Name": "p-nms002","Guid": "p-nms002","Dynamic Profile Parent Name": "dlt-servers"},
    {"Name": "v-netmon002","Guid": "v-netmon002","Dynamic Profile Parent Name": "dlt-servers","Tags": ["deltares", "netbeheer"]},
    {"Name": "v-beheer-is002","Guid": "v-beheer-is002","Dynamic Profile Parent Name": "dlt-servers-tmux-keeper","Tags": ["deltares", "Infra-Services", "IS"]},
    {"Name": "v-beheer-bus002","Guid": "v-beheer-bus002","Dynamic Profile Parent Name": "dlt-servers-tmux-keeper","Tags": ["deltares", "Business-Services", "BuS"]},
    {"Name": "v-beheer-cs002","Guid": "v-beheer-cs002","Dynamic Profile Parent Name": "dlt-servers-tmux-keeper","Tags": ["deltares", "Computation-Services", "CS"]},
    {"Name": "v-beheer-ds002","Guid": "v-beheer-ds002","Dynamic Profile Parent Name": "dlt-servers-tmux-keeper","Tags": ["deltares", "Data-Services", "DS"]},
    {"Name": "v-beheer-bck002","Guid": "v-beheer-bck002","Dynamic Profile Parent Name": "dlt-servers-tmux-keeper","Tags": ["deltares", "Backup-Services", "BCK"]},
    {"Name": "v-beheer-sb002","Guid": "v-beheer-sb002","Dynamic Profile Parent Name": "dlt-servers-tmux-keeper","Tags": ["deltares", "Sensitive-Business", "BCK"]},
    {"Name": "v-laut0001","Guid": "v-laut0001","Dynamic Profile Parent Name": "dlt-servers","Tags": ["deltares", "Infra-Services", "IS"]},
    {"Name": "v-laut0002","Guid": "v-laut0002","Dynamic Profile Parent Name": "dlt-servers","Tags": ["deltares", "Infra-Services", "IS"]},
    {"Name": "v-laut0003","Guid": "v-laut0003","Dynamic Profile Parent Name": "dlt-servers","Tags": ["deltares", "Business-Services", "BuS"]},
    {"Name": "v-laut0004","Guid": "v-laut0004","Dynamic Profile Parent Name": "dlt-servers","Tags": ["deltares", "Business-Services", "BuS"]},
    {"Name": "v-laut0005","Guid": "v-laut0005","Dynamic Profile Parent Name": "dlt-servers","Tags": ["deltares", "Computation-Services", "CS"]},
    {"Name": "v-laut0006","Guid": "v-laut0006","Dynamic Profile Parent Name": "dlt-servers","Tags": ["deltares", "Computation-Services", "CS"]},
    {"Name": "v-laut0007","Guid": "v-laut0007","Dynamic Profile Parent Name": "dlt-servers","Tags": ["deltares", "Data-Services", "DS"]},
    {"Name": "v-laut0008","Guid": "v-laut0008","Dynamic Profile Parent Name": "dlt-servers","Tags": ["deltares", "Data-Services", "DS"]},
    {"Name": "v-laut0009","Guid": "v-laut0009","Dynamic Profile Parent Name": "dlt-servers","Tags": ["deltares", "Backup-Services", "BCK"]},
    {"Name": "v-laut0010","Guid": "v-laut0010","Dynamic Profile Parent Name": "dlt-servers","Tags": ["deltares", "Backup-Services", "BCK"]},
    {"Name": "v-dns001","Guid": "v-dns001","Dynamic Profile Parent Name": "dlt-servers","Tags": ["deltares", "DNS"]},
    {"Name": "v-dns002","Guid": "v-dns002","Dynamic Profile Parent Name": "dlt-servers","Tags": ["deltares", "DNS"]},
    {"Name": "p-officeprb001","Guid": "p-officeprb001","Dynamic Profile Parent Name": "dlt-servers","Tags": ["deltares", "probe"]},
    {"Name": "p-officeprb002","Guid": "p-officeprb002","Dynamic Profile Parent Name": "dlt-servers","Tags": ["deltares", "probe"]},
    {"Name": "p-officeprb003","Guid": "p-officeprb003","Dynamic Profile Parent Name": "dlt-servers","Tags": ["deltares", "probe"]},
    {"Name": "v-netprom001","Guid": "v-netprom001","Dynamic Profile Parent Name": "dlt-servers","Tags": ["deltares", "prometheus"]},
    {"Name": "v-kctrl-a-001","Guid": "v-kctrl-a-001","Dynamic Profile Parent Name": "dlt-servers","Tags": ["deltares", "k8s"]},
    {"Name": "v-kctrl-a-002","Guid": "v-kctrl-a-002","Dynamic Profile Parent Name": "dlt-servers","Tags": ["deltares", "k8s"]},
    {"Name": "v-kctrl-a-003","Guid": "v-kctrl-a-003","Dynamic Profile Parent Name": "dlt-servers","Tags": ["deltares", "k8s"]},
    {"Name": "v-knode-a-001","Guid": "v-knode-a-001","Dynamic Profile Parent Name": "dlt-servers","Tags": ["deltares", "k8s"]},
    {"Name": "v-knode-a-002","Guid": "v-knode-a-002","Dynamic Profile Parent Name": "dlt-servers","Tags": ["deltares", "k8s"]},
    {"Name": "v-kctrl-b-001","Guid": "v-kctrl-b-001","Dynamic Profile Parent Name": "dlt-servers","Tags": ["deltares", "k8s"]},
    {"Name": "v-kctrl-b-002","Guid": "v-kctrl-b-002","Dynamic Profile Parent Name": "dlt-servers","Tags": ["deltares", "k8s"]},
    {"Name": "v-kctrl-b-003","Guid": "v-kctrl-b-003","Dynamic Profile Parent Name": "dlt-servers","Tags": ["deltares", "k8s"]},
    {"Name": "v-knode-b-001","Guid": "v-knode-b-001","Dynamic Profile Parent Name": "dlt-servers","Tags": ["deltares", "k8s"]},
    {"Name": "v-knode-b-002","Guid": "v-knode-b-002","Dynamic Profile Parent Name": "dlt-servers","Tags": ["deltares", "k8s"]},
    {"Name": "v-knode-b-003","Guid": "v-knode-b-003","Dynamic Profile Parent Name": "dlt-servers","Tags": ["deltares", "k8s"]},
  ]
}
