{
  "Profiles": [
    {
      "Name": "dlt-netdevices",
      "Guid": "dlt-netdevices",
      "Dynamic Profile Parent Name": "Default",
      "Tags" : [
        "deltares"
      ],
      "Log Directory" : "\/Users\/marvink\/OneDrive - Stichting Deltares\/var\/logging\/iterm\/netdevices",
      "Custom Command": "Yes",
      "Command": "zsh --login -c \"ssh \\(profileName)\""
    },
    {"Name": "efw01","Guid": "efw01","Dynamic Profile Parent Name": "dlt-netdevices"},
    {"Name": "mfw01","Guid": "mfw01","Dynamic Profile Parent Name": "dlt-netdevices"},

    {"Name": "dcd-a07-gpl01","Guid": "dcd-a07-gpl01","Dynamic Profile Parent Name": "dlt-netdevices","Tags": ["deltares", "Datacenter (DCD)"]},
    {"Name": "dcd-a07-gpl02","Guid": "dcd-a07-gpl02","Dynamic Profile Parent Name": "dlt-netdevices","Tags": ["deltares", "Datacenter (DCD)"]},
    {"Name": "dcd-a08-dls01","Guid": "dcd-a08-dls01","Dynamic Profile Parent Name": "dlt-netdevices","Tags": ["deltares", "Datacenter (DCD)"]},
    {"Name": "dcd-a08-dms01","Guid": "dcd-a08-dms01","Dynamic Profile Parent Name": "dlt-netdevices","Tags": ["deltares", "Datacenter (DCD)"]},
    {"Name": "dcd-a08-dms02","Guid": "dcd-a08-dms02","Dynamic Profile Parent Name": "dlt-netdevices","Tags": ["deltares", "Datacenter (DCD)"]},
    {"Name": "dcd-a08-dss01","Guid": "dcd-a08-dss01","Dynamic Profile Parent Name": "dlt-netdevices","Tags": ["deltares", "Datacenter (DCD)"]},
    {"Name": "dcd-a08-ocs01","Guid": "dcd-a08-ocs01","Dynamic Profile Parent Name": "dlt-netdevices","Tags": ["deltares", "Datacenter (DCD)"]},
    {"Name": "dcd-a09-dls01","Guid": "dcd-a09-dls01","Dynamic Profile Parent Name": "dlt-netdevices","Tags": ["deltares", "Datacenter (DCD)"]},
    {"Name": "dcd-a09-dms01","Guid": "dcd-a09-dms01","Dynamic Profile Parent Name": "dlt-netdevices","Tags": ["deltares", "Datacenter (DCD)"]},
    {"Name": "dcd-a09-dms02","Guid": "dcd-a09-dms02","Dynamic Profile Parent Name": "dlt-netdevices","Tags": ["deltares", "Datacenter (DCD)"]},
    {"Name": "dcd-a09-efw01","Guid": "dcd-a09-efw01","Dynamic Profile Parent Name": "dlt-netdevices","Tags": ["deltares", "Datacenter (DCD)"]},
    {"Name": "dcd-a09-gpl01","Guid": "dcd-a09-gpl01","Dynamic Profile Parent Name": "dlt-netdevices","Tags": ["deltares", "Datacenter (DCD)"]},
    {"Name": "dcd-a09-gpl02","Guid": "dcd-a09-gpl02","Dynamic Profile Parent Name": "dlt-netdevices","Tags": ["deltares", "Datacenter (DCD)"]},
    {"Name": "dcd-a09-ias01","Guid": "dcd-a09-ias01","Dynamic Profile Parent Name": "dlt-netdevices","Tags": ["deltares", "Datacenter (DCD)"]},
    {"Name": "dcd-a09-mcs01","Guid": "dcd-a09-mcs01","Dynamic Profile Parent Name": "dlt-netdevices","Tags": ["deltares", "Datacenter (DCD)"]},
    {"Name": "dcd-a09-mcs02","Guid": "dcd-a09-mcs02","Dynamic Profile Parent Name": "dlt-netdevices","Tags": ["deltares", "Datacenter (DCD)"]},
    {"Name": "dcd-a09-mfw01","Guid": "dcd-a09-mfw01","Dynamic Profile Parent Name": "dlt-netdevices","Tags": ["deltares", "Datacenter (DCD)"]},
    {"Name": "dcd-a10-dls01","Guid": "dcd-a10-dls01","Dynamic Profile Parent Name": "dlt-netdevices","Tags": ["deltares", "Datacenter (DCD)"]},
    {"Name": "dcd-a10-dls02","Guid": "dcd-a10-dls02","Dynamic Profile Parent Name": "dlt-netdevices","Tags": ["deltares", "Datacenter (DCD)"]},
    {"Name": "dcd-a10-dms01","Guid": "dcd-a10-dms01","Dynamic Profile Parent Name": "dlt-netdevices","Tags": ["deltares", "Datacenter (DCD)"]},
    {"Name": "dcd-a12-dms01","Guid": "dcd-a12-dms01","Dynamic Profile Parent Name": "dlt-netdevices","Tags": ["deltares", "Datacenter (DCD)"]},
    {"Name": "dcd-a13-dms01","Guid": "dcd-a13-dms01","Dynamic Profile Parent Name": "dlt-netdevices","Tags": ["deltares", "Datacenter (DCD)"]},
    {"Name": "dcd-a13-gpl01","Guid": "dcd-a13-gpl01","Dynamic Profile Parent Name": "dlt-netdevices","Tags": ["deltares", "Datacenter (DCD)"]},
    {"Name": "dcd-a13-gpl02","Guid": "dcd-a13-gpl02","Dynamic Profile Parent Name": "dlt-netdevices","Tags": ["deltares", "Datacenter (DCD)"]},
    {"Name": "dcd-a14-gpl01","Guid": "dcd-a14-gpl01","Dynamic Profile Parent Name": "dlt-netdevices","Tags": ["deltares", "Datacenter (DCD)"]},
    {"Name": "dcd-a14-gpl02","Guid": "dcd-a14-gpl02","Dynamic Profile Parent Name": "dlt-netdevices","Tags": ["deltares", "Datacenter (DCD)"]},
    {"Name": "dcd-a15-dms01","Guid": "dcd-a15-dms01","Dynamic Profile Parent Name": "dlt-netdevices","Tags": ["deltares", "Datacenter (DCD)"]},
    {"Name": "dcd-b02-dls01","Guid": "dcd-b02-dls01","Dynamic Profile Parent Name": "dlt-netdevices","Tags": ["deltares", "Datacenter (DCD)"]},
    {"Name": "dcd-b02-dls02","Guid": "dcd-b02-dls02","Dynamic Profile Parent Name": "dlt-netdevices","Tags": ["deltares", "Datacenter (DCD)"]},
    {"Name": "dcd-b02-dms01","Guid": "dcd-b02-dms01","Dynamic Profile Parent Name": "dlt-netdevices","Tags": ["deltares", "Datacenter (DCD)"]},
    {"Name": "dcd-b04-dls01","Guid": "dcd-b04-dls01","Dynamic Profile Parent Name": "dlt-netdevices","Tags": ["deltares", "Datacenter (DCD)"]},
    {"Name": "dcd-b04-dls02","Guid": "dcd-b04-dls02","Dynamic Profile Parent Name": "dlt-netdevices","Tags": ["deltares", "Datacenter (DCD)"]},
    {"Name": "dcd-b08-dls01","Guid": "dcd-b08-dls01","Dynamic Profile Parent Name": "dlt-netdevices","Tags": ["deltares", "Datacenter (DCD)"]},
    {"Name": "dcd-b08-dms01","Guid": "dcd-b08-dms01","Dynamic Profile Parent Name": "dlt-netdevices","Tags": ["deltares", "Datacenter (DCD)"]},
    {"Name": "dcd-b08-dms02","Guid": "dcd-b08-dms02","Dynamic Profile Parent Name": "dlt-netdevices","Tags": ["deltares", "Datacenter (DCD)"]},
    {"Name": "dcd-b09-dls01","Guid": "dcd-b09-dls01","Dynamic Profile Parent Name": "dlt-netdevices","Tags": ["deltares", "Datacenter (DCD)"]},
    {"Name": "dcd-b09-dms01","Guid": "dcd-b09-dms01","Dynamic Profile Parent Name": "dlt-netdevices","Tags": ["deltares", "Datacenter (DCD)"]},
    {"Name": "dcd-b09-dms02","Guid": "dcd-b09-dms02","Dynamic Profile Parent Name": "dlt-netdevices","Tags": ["deltares", "Datacenter (DCD)"]},
    {"Name": "dcd-b12-dms01","Guid": "dcd-b12-dms01","Dynamic Profile Parent Name": "dlt-netdevices","Tags": ["deltares", "Datacenter (DCD)"]},
    {"Name": "dcd-b14-dls01","Guid": "dcd-b14-dls01","Dynamic Profile Parent Name": "dlt-netdevices","Tags": ["deltares", "Datacenter (DCD)"]},
    {"Name": "dcd-b14-dls02","Guid": "dcd-b14-dls02","Dynamic Profile Parent Name": "dlt-netdevices","Tags": ["deltares", "Datacenter (DCD)"]},
    {"Name": "dcd-b14-dms01","Guid": "dcd-b14-dms01","Dynamic Profile Parent Name": "dlt-netdevices","Tags": ["deltares", "Datacenter (DCD)"]},
    {"Name": "dcd-b14-dms02","Guid": "dcd-b14-dms02","Dynamic Profile Parent Name": "dlt-netdevices","Tags": ["deltares", "Datacenter (DCD)"]},
    {"Name": "dcd-b15-dls01","Guid": "dcd-b15-dls01","Dynamic Profile Parent Name": "dlt-netdevices","Tags": ["deltares", "Datacenter (DCD)"]},
    {"Name": "dcd-b15-dls02","Guid": "dcd-b15-dls02","Dynamic Profile Parent Name": "dlt-netdevices","Tags": ["deltares", "Datacenter (DCD)"]},
    {"Name": "dcd-b15-dms01","Guid": "dcd-b15-dms01","Dynamic Profile Parent Name": "dlt-netdevices","Tags": ["deltares", "Datacenter (DCD)"]},
    {"Name": "dcd-b15-dms02","Guid": "dcd-b15-dms02","Dynamic Profile Parent Name": "dlt-netdevices","Tags": ["deltares", "Datacenter (DCD)"]},
    {"Name": "htr-r02-gpl01","Guid": "htr-r02-gpl01","Dynamic Profile Parent Name": "dlt-netdevices","Tags": ["deltares", "Hatroom (HTR/HK8/TRN8)"]},
    {"Name": "htr-r02-gpl02","Guid": "htr-r02-gpl02","Dynamic Profile Parent Name": "dlt-netdevices","Tags": ["deltares", "Hatroom (HTR/HK8/TRN8)"]},
    {"Name": "htr-r03-dls01","Guid": "htr-r03-dls01","Dynamic Profile Parent Name": "dlt-netdevices","Tags": ["deltares", "Hatroom (HTR/HK8/TRN8)"]},
    {"Name": "htr-r03-dms01","Guid": "htr-r03-dms01","Dynamic Profile Parent Name": "dlt-netdevices","Tags": ["deltares", "Hatroom (HTR/HK8/TRN8)"]},
    {"Name": "htr-r03-efw01","Guid": "htr-r03-efw01","Dynamic Profile Parent Name": "dlt-netdevices","Tags": ["deltares", "Hatroom (HTR/HK8/TRN8)"]},
    {"Name": "htr-r03-ias01","Guid": "htr-r03-ias01","Dynamic Profile Parent Name": "dlt-netdevices","Tags": ["deltares", "Hatroom (HTR/HK8/TRN8)"]},
    {"Name": "htr-r03-ocs01","Guid": "htr-r03-ocs01","Dynamic Profile Parent Name": "dlt-netdevices","Tags": ["deltares", "Hatroom (HTR/HK8/TRN8)"]},
    {"Name": "htr-r04-dls01","Guid": "htr-r04-dls01","Dynamic Profile Parent Name": "dlt-netdevices","Tags": ["deltares", "Hatroom (HTR/HK8/TRN8)"]},
    {"Name": "htr-r04-dms01","Guid": "htr-r04-dms01","Dynamic Profile Parent Name": "dlt-netdevices","Tags": ["deltares", "Hatroom (HTR/HK8/TRN8)"]},
    {"Name": "htr-r04-dss01","Guid": "htr-r04-dss01","Dynamic Profile Parent Name": "dlt-netdevices","Tags": ["deltares", "Hatroom (HTR/HK8/TRN8)"]},
    {"Name": "htr-r04-mcs01","Guid": "htr-r04-mcs01","Dynamic Profile Parent Name": "dlt-netdevices","Tags": ["deltares", "Hatroom (HTR/HK8/TRN8)"]},
    {"Name": "htr-r04-mfw01","Guid": "htr-r04-mfw01","Dynamic Profile Parent Name": "dlt-netdevices","Tags": ["deltares", "Hatroom (HTR/HK8/TRN8)"]},
    {"Name": "htr-r06-dls01","Guid": "htr-r06-dls01","Dynamic Profile Parent Name": "dlt-netdevices","Tags": ["deltares", "Hatroom (HTR/HK8/TRN8)"]},
    {"Name": "htr-r07-dls01","Guid": "htr-r07-dls01","Dynamic Profile Parent Name": "dlt-netdevices","Tags": ["deltares", "Hatroom (HTR/HK8/TRN8)"]},
    {"Name": "htr-r07-dms01","Guid": "htr-r07-dms01","Dynamic Profile Parent Name": "dlt-netdevices","Tags": ["deltares", "Hatroom (HTR/HK8/TRN8)"]},
    {"Name": "htr-r08-dls01","Guid": "htr-r08-dls01","Dynamic Profile Parent Name": "dlt-netdevices","Tags": ["deltares", "Hatroom (HTR/HK8/TRN8)"]},
    {"Name": "htr-r08-dls02","Guid": "htr-r08-dls02","Dynamic Profile Parent Name": "dlt-netdevices","Tags": ["deltares", "Hatroom (HTR/HK8/TRN8)"]},
    {"Name": "htr-r08-dms01","Guid": "htr-r08-dms01","Dynamic Profile Parent Name": "dlt-netdevices","Tags": ["deltares", "Hatroom (HTR/HK8/TRN8)"]},
    {"Name": "htr-r08-dms02","Guid": "htr-r08-dms02","Dynamic Profile Parent Name": "dlt-netdevices","Tags": ["deltares", "Hatroom (HTR/HK8/TRN8)"]},
    {"Name": "htr-r09-dls01","Guid": "htr-r09-dls01","Dynamic Profile Parent Name": "dlt-netdevices","Tags": ["deltares", "Hatroom (HTR/HK8/TRN8)"]},
    {"Name": "htr-r09-dms01","Guid": "htr-r09-dms01","Dynamic Profile Parent Name": "dlt-netdevices","Tags": ["deltares", "Hatroom (HTR/HK8/TRN8)"]},
    {"Name": "htr-r10-dls01","Guid": "htr-r10-dls01","Dynamic Profile Parent Name": "dlt-netdevices","Tags": ["deltares", "Hatroom (HTR/HK8/TRN8)"]},
    {"Name": "htr-r11-dls01","Guid": "htr-r11-dls01","Dynamic Profile Parent Name": "dlt-netdevices","Tags": ["deltares", "Hatroom (HTR/HK8/TRN8)"]},
    {"Name": "htr-r11-dms01","Guid": "htr-r11-dms01","Dynamic Profile Parent Name": "dlt-netdevices","Tags": ["deltares", "Hatroom (HTR/HK8/TRN8)"]},
    {"Name": "htr-r12-dls01","Guid": "htr-r12-dls01","Dynamic Profile Parent Name": "dlt-netdevices","Tags": ["deltares", "Hatroom (HTR/HK8/TRN8)"]},
    {"Name": "htr-r12-dls02","Guid": "htr-r12-dls02","Dynamic Profile Parent Name": "dlt-netdevices","Tags": ["deltares", "Hatroom (HTR/HK8/TRN8)"]},
    {"Name": "htr-r12-dms01","Guid": "htr-r12-dms01","Dynamic Profile Parent Name": "dlt-netdevices","Tags": ["deltares", "Hatroom (HTR/HK8/TRN8)"]},
    {"Name": "htr-r13-dms01","Guid": "htr-r13-dms01","Dynamic Profile Parent Name": "dlt-netdevices","Tags": ["deltares", "Hatroom (HTR/HK8/TRN8)"]},
    {"Name": "htr-r14-dls01","Guid": "htr-r14-dls01","Dynamic Profile Parent Name": "dlt-netdevices","Tags": ["deltares", "Hatroom (HTR/HK8/TRN8)"]},
    {"Name": "htr-r14-dls02","Guid": "htr-r14-dls02","Dynamic Profile Parent Name": "dlt-netdevices","Tags": ["deltares", "Hatroom (HTR/HK8/TRN8)"]},
    {"Name": "htr-r14-dms01","Guid": "htr-r14-dms01","Dynamic Profile Parent Name": "dlt-netdevices","Tags": ["deltares", "Hatroom (HTR/HK8/TRN8)"]},
    {"Name": "vt-ztna001","Guid": "vt-ztna001","Dynamic Profile Parent Name": "dlt-netdevices","Tags": ["deltares", "vpn"]},
    {"Name": "vt-ztna002","Guid": "vt-ztna002","Dynamic Profile Parent Name": "dlt-netdevices","Tags": ["deltares", "vpn"]},
    
  ]
}
