{
  "Profiles": [
    {
      "Name": "home-servers",
      "Guid": "home-servers",
      "Dynamic Profile Parent Name": "Default",
      "Tags": ["home-server"],
      "Log Directory" : "\/Users\/marvink\/var\/log\/iterm\/homelab",
      "Custom Command": "Yes",
      "Command": "zsh --login -c \"ssh \\(profileName)\""
    },
    {
      "Name": "home-network-elements",
      "Guid": "home-network-elements",
      "Dynamic Profile Parent Name": "Default",
      "Tags": ["home-network-elements"],
      "Log Directory" : "\/Users\/marvink\/var\/log\/iterm\/homelab",
      "Custom Command": "Yes",
      "Command": "zsh --login -c \"ssh \\(profileName)\""
    },
    {"Name": "s-pi01","Guid": "s-pi01","Dynamic Profile Parent Name": "home-servers"},
    {"Name": "s-mini01","Guid": "s-mini01","Dynamic Profile Parent Name": "home-servers"},
    {"Name": "s-mini02","Guid": "s-mini02","Dynamic Profile Parent Name": "home-servers"},
    {"Name": "dev","Guid": "dev","Dynamic Profile Parent Name": "home-servers"},
    {"Name": "kctrl1","Guid": "kctrl1","Dynamic Profile Parent Name": "home-servers"},
    {"Name": "kctrl2","Guid": "kctrl2","Dynamic Profile Parent Name": "home-servers"},
    {"Name": "kctrl3","Guid": "kctrl3","Dynamic Profile Parent Name": "home-servers"},
    {"Name": "knode1","Guid": "knode1","Dynamic Profile Parent Name": "home-servers"},
    {"Name": "knode2","Guid": "knode2","Dynamic Profile Parent Name": "home-servers"},
    {"Name": "r01","Guid": "r01","Dynamic Profile Parent Name": "home-network-elements"}

  ]
}
